10400000         2097914840001090000000000000000000000045022045400000000ORDEM DOS ADVOGADOS DO BRASIL CAIXA ECONOMICA FEDERAL                 10702201717214800003605000000                    REMESSA-PRODUCAO                                 
10400011R0100030 20097914840001092204540000000000000000045022045400000000ORDEM DOS ADVOGADOS DO BRASIL                                                                                 000000360702201700000000                                 
1040001300001P 01000450220454000000000001400000017000001111220170000011      2802201700000000000695000000024A27122016201011970000000000000100128022017000000000000000000000000000000000000000000000170000011                3001120090000000000 
1040001300001Q 011000043134262800REYNALDO ANTONIAZZI PINHEIRO ROSA       RUA FRANCISCO MENDES 229                PIEDADE        54410150JABOATAO DOS G PE2009791484000109ORDEM DOS ADVOGADOS DO BRASIL                                          
1040001300001R 01000000000000000000000000000000000000000000000000201011970000000000000200                                                                                                                                                       
1040001300002P 01000450220454000000000001400000017000002411220170000024      2802201700000000000695000000024A27122016201011970000000000000100128022017000000000000000000000000000000000000000000000170000024                3001120090000000000 
1040001300002Q 011000012724971434MARCELO DE SA CAVALCANTI DE ALBUQUERQUE RUA MIN NELSON HUNGRIA, 636, BL A AP 102BOA VIAGEM     51020100RECIFE         PE2009791484000109ORDEM DOS ADVOGADOS DO BRASIL                                          
1040001300002R 01000000000000000000000000000000000000000000000000201011970000000000000200                                                                                                                                                       
10400015         000006000002000000000000139000000000000000000000000000000000000000000000000                                                                                                                                                    
10499999         000001000008                                                                                                                                                                                                                   
