10400000         2097914840001090000000000000000000000045022045400000000ORDEM DOS ADVOGADOS DO BRASIL CAIXA ECONOMICA FEDERAL                 11201201714520200001005000000                    REMESSA-PRODUCAO                                 
10400011R0100030 20097914840001092204540000000000000000045022045400000000ORDEM DOS ADVOGADOS DO BRASIL                                                                                 000000101201201700000000                                 
1040001300001P 01000450220454000000000001400000017002976611220170029766      3101201700000000008340000000024A27122016300000000000000000000000131012017000000000000000000000000000000000000000000000170029766                3001120090000000000 
1040001300001Q 011000021256551449SILVIA MARCIA NOGUEIRA                  RUA TELES JUNIOR, 155-B/1502            Rosarinho      52050040RECIFE         PE2009791484000109ORDEM DOS ADVOGADOS DO BRASIL                                          
10400015         000004000001000000000000834000000000000000000000000000000000000000000000000                                                                                                                                                    
10499999         000001000006                                                                                                                                                                                                                   
