00100390         3408410330001890000000000000015198X00697100000213295000BISAWEB TECNOLOGIA DA INFORMAO001BANCODOBRASIL                        11702201710593000003908100000CDC240000000000                                                      
00100011R01  030 204084103300018900015198X001417001TS00697100000213295000BISAWEB TECNOLOGIA DA INFORMAO                                                                                000000391702201717022017                                 
0010001300001P 01006971000002132950015198X170382544     071 22170382544      2102201700000000000015000000 24A17022017300000000000000000000000121022017000000000000000000000000000000000000000000000170382544                3001120090000000000 
0010001300001Q 071000000000000000A DEFENSORIA PBLICA DO ESTADO DE PERNAMBRUA DA OAB                              SANTO ANTONIO  60000000RECANTO DAS EMAPE2040841033000189BISAWEB TECNOLOGIA DA INFORMAO LTDA     000                            
00100015         0000041                                                                                                                                                                                                                        
00199999         000001000006                                                                                                                                                                                                                   
