01TESTE  01COBRANCA       00450000000000000000ORDEM DOS ADVOGADOS DO BRASIL   001BANCODOBRASIL1212160000053                      0437300                                                                                                                                                                                                                                                                  000001
70209791484000109004500000000000437300140000000008527429       000000000008527420000       0010000000     020100008527423112160000000001,020010045001N02121607070000000000,000000000000000000,000000000000,000000000000,000100005026415768ARY LERNER                              AV ENG DOMINGOS FERREIRA, 1274, LJ 9    BOA VIAGEM  51011050RECIFE         PE'Taxas recebidas : Boleta Referente a Ta   000001
70209791484000109004500000000000437300140000000008527437       000000000008527430000       0010000000     020100008527433112160000000001,490010045001N02121607070000000000,000000000000000000,000000000000,000000000000,000100012724971434MARCELO DE SA CAVALCANTI DE ALBUQUERQ   RUA MIN NELSON HUNGRIA, 636, BL A AP 102BOA VIAGEM  51020100RECIFE         PE'Taxas recebidas : Boleta Referente a Ta   000002
9                                                                                                                                                                                                                                                                                                                                                                                                         000053
