10400000         2097914840001090000000000000000000000045022045400000000ORDEM DOS ADVOGADOS DO BRASIL CAIXA ECONOMICA FEDERAL                 10702201716482900003205000000                    REMESSA-PRODUCAO                                 
10400011R0100030 20097914840001092204540000000000000000045022045400000000ORDEM DOS ADVOGADOS DO BRASIL                                                                                 000000320702201700000000                                 
1040001300001P 01000450220454000000000001400000017000001111220170000011      2802201700000000000695000000024A27122016201011970000000000000100128022017000000000000000000000000000000000000000000000170000011                3001120090000000000 
1040001300001Q 011000043134262800REYNALDO ANTONIAZZI PINHEIRO ROSA       RUA FRANCISCO MENDES 229                PIEDADE        54410150JABOATAO DOS G PE2009791484000109ORDEM DOS ADVOGADOS DO BRASIL                                          
1040001300001R 01000000000000000000000000000000000000000000000000201011970000000000000200                                                                                                                                                       
1040001300002P 01000450220454000000000001400000017000003711220170000037      2802201700000000000695000000024A27122016201011970000000000000100128022017000000000000000000000000000000000000000000000170000037                3001120090000000000 
1040001300002Q 011000007022107491FERNANDO ANTONIO DIAS DE BARROS         RUA LOPES CARVALHO, 102                 Madalena       50610170RECIFE         PE2009791484000109ORDEM DOS ADVOGADOS DO BRASIL                                          
1040001300002R 01000000000000000000000000000000000000000000000000201011970000000000000200                                                                                                                                                       
10400015         000006000002000000000000139000000000000000000000000000000000000000000000000                                                                                                                                                    
10499999         000001000008                                                                                                                                                                                                                   
