10400000         2097914840001090000000000000000000000045022045400000000ORDEM DOS ADVOGADOS DO BRASIL CAIXA ECONOMICA FEDERAL                 12612201611155900000105000000                    REMESSA-PRODUCAO                                 
10400011R0100030 20097914840001092204540000000000000000045022045400000000ORDEM DOS ADVOGADOS DO BRASIL                                                                                 000000012612201600000000                                 
1040001300001P 01000450220454000000000001400000020160000111220201600001      3101201700000000008340000000024A26122016300000000000000000000000000000000000000000000000000000000000000000000000000000201600001                3001120090000000000 
1040001300001Q 011000001301187453IREM RODRIGUES DOS ANJOS                RUA AQUIDABA, 42 AP.1001                BOA VIAGEM     51030280RECIFE         PE2009791484000109ORDEM DOS ADVOGADOS DO BRASIL SECO PE                                  
1040001300002P 01000450220454000000000001400000020160000111220201600001      3101201700000000008340000000024A26122016300000000000000000000000000000000000000000000000000000000000000000000000000000201600001                3001120090000000000 
1040001300002Q 011000001301187453IREM%C1%20RODRIGUES%20DOS%20ANJOS       RUA%20AQUIDABA,%2042%20AP.1001          BOA%20VIAGEM   51030280RECIFE         PE2009791484000109ORDEM%20DOS%20ADVOGADOS%20DO%20BRASIL%20                               
1040001300003P 01000450220454000000000001400000020160000211220201600002      3101201700000000008340000000024A26122016300000000000000000000000000000000000000000000000000000000000000000000000000000201600002                3001120090000000000 
1040001300003Q 011000032358407704EDUARDO VITOR GONALVES COUTINHO         RUA DES. ANTONIO DA SILVA GUIMARAES, 100CASA CAIADA    53130360OLINDA         PE2009791484000109ORDEM DOS ADVOGADOS DO BRASIL SECO PE                                  
1040001300004P 01000450220454000000000001400000020160000211220201600002      3101201700000000008340000000024A26122016300000000000000000000000000000000000000000000000000000000000000000000000000000201600002                3001120090000000000 
1040001300004Q 011000032358407704EDUARDO%20VITOR%20GON%C7ALVES%20COUTINHORUA%20DES.%20ANTONIO%20DA%20SILVA%20GUIMCASA%20CAIADA  53130360OLINDA         PE2009791484000109ORDEM%20DOS%20ADVOGADOS%20DO%20BRASIL%20                               
1040001300005P 01000450220454000000000001400000020160000311220201600003      3101201700000000008340000000024A26122016300000000000000000000000000000000000000000000000000000000000000000000000000000201600003                3001120090000000000 
1040001300005Q 011000027772535791SONIA MARIA MIRANDA REIS COUTINHO       RUA DES. ANTONIO GUIMARAES, 100         CASA CAIADA    53130360OLINDA         PE2009791484000109ORDEM DOS ADVOGADOS DO BRASIL SECO PE                                  
1040001300006P 01000450220454000000000001400000020160000311220201600003      3101201700000000008340000000024A26122016300000000000000000000000000000000000000000000000000000000000000000000000000000201600003                3001120090000000000 
1040001300006Q 011000027772535791SONIA%20MARIA%20MIRANDA%20REIS%20COUTINHRUA%20DES.%20ANTONIO%20GUIMARAES,%20100 CASA%20CAIADA  53130360OLINDA         PE2009791484000109ORDEM%20DOS%20ADVOGADOS%20DO%20BRASIL%20                               
10400015         000014000006000000000005004000000000000000000000000000000000000000000000000                                                                                                                                                    
10499999         000001000016                                                                                                                                                                                                                   
