10400000         2097914840001090000000000000000000000045000000000000000ORDEM DOS ADVOGADOS DO BRASIL CAIXA ECONOMICA FEDERAL                 12111201611223400001605000000                    REMESSA-TESTE                                    
10400011R0100030 20097914840001090000000000000000000000045000000000000000ORDEM DOS ADVOGADOS DO BRASIL                                                                                 000000162111201600000000                                 
1040001300001P 010004500000000000000000014000002015517251112202015517251     3101201600000000000078000000024A211120163000000000000000000000000000000000000000000000000000000000000000000000000000002015517251               3001120090000000000 
1040001300001Q 011000045059225453ABEL AUGUSTO DO REGO COSTA JUNIOR       RUA DESEMBARGADOR TRINDADE, 1501/347    CENTRO         58400260RECIFE         PB0009791484000109ORDEM DOS ADVOGADOS DO BRASIL SECO PE   000                            
1040001300002P 010004500000000000000000014000002015517252112202015517252     3101201600000000000078000000024A211120163000000000000000000000000000000000000000000000000000000000000000000000000000002015517252               3001120090000000000 
1040001300002Q 011000005564196856ADELMO DA SILVA EMERENCIANO             RUA ELISEU TEIXEIRA DE CAMARGO, 1070  CACHACARA GRAMADO13094765CAMPINAS       SP0009791484000109ORDEM DOS ADVOGADOS DO BRASIL SECO PE   000                            
1040001300003P 010004500000000000000000014000002015517253112202015517253     3101201600000000000078000000024A211120163000000000000000000000000000000000000000000000000000000000000000000000000000002015517253               3001120090000000000 
1040001300003Q 011000002162810590ADRIANA DIAS DE FARIAS                  RUA DOUTOR JOSE INACIO DA SILVA, 08, APTCENTRO         48903430JUAZEIRO       BA0009791484000109ORDEM DOS ADVOGADOS DO BRASIL SECO PE   000                            
1040001300004P 010004500000000000000000014000002015517254112202015517254     3101201600000000000078000000024A211120163000000000000000000000000000000000000000000000000000000000000000000000000000002015517254               3001120090000000000 
1040001300004Q 011000014551997889ADRIANA FARIZATO SILVA                  RUA MAJOR CARVALHO FILHO, 437           CENTRO         14801280ARARAQUARA     SP0009791484000109ORDEM DOS ADVOGADOS DO BRASIL SECO PE   000                            
1040001300005P 010004500000000000000000014000002015517255112202015517255     3101201600000000000078000000024A211120163000000000000000000000000000000000000000000000000000000000000000000000000000002015517255               3001120090000000000 
1040001300005Q 011000025336291897ADRIANA GOUVEIA DA NBREGA               RUA PROFESSOR JULIO FERREIRA DE MELO, 84B VIAGEM       51020231RECIFE         PE0009791484000109ORDEM DOS ADVOGADOS DO BRASIL SECO PE   000                            
1040001300006P 010004500000000000000000014000002015517256112202015517256     3101201600000000000078000000024A211120163000000000000000000000000000000000000000000000000000000000000000000000000000002015517256               3001120090000000000 
1040001300006Q 011000013096809810ADRIANA LIGIA MONTEIRO DELBONI          RUA JATOBA, 18                          JD PINHEIRO    16400583LINS           SP0009791484000109ORDEM DOS ADVOGADOS DO BRASIL SECO PE   000                            
1040001300007P 010004500000000000000000014000002015517257112202015517257     3101201600000000000078000000024A211120163000000000000000000000000000000000000000000000000000000000000000000000000000002015517257               3001120090000000000 
1040001300007Q 011000026616635848ADRIANO LORENTE FABRETTI                RUA ANALANDIA, 181                      AT MOOCA       03178080SAO PAULO      SP0009791484000109ORDEM DOS ADVOGADOS DO BRASIL SECO PE   000                            
1040001300008P 010004500000000000000000014000002015517258112202015517258     3101201600000000000078000000024A211120163000000000000000000000000000000000000000000000000000000000000000000000000000002015517258               3001120090000000000 
1040001300008Q 011000006913523483ADSON SOARES DE AZEVEDO                 RUA GENERINA VALE, 865                  CENTRO         59300000CAIC           RN0009791484000109ORDEM DOS ADVOGADOS DO BRASIL SECO PE   000                            
1040001300009P 010004500000000000000000014000002015517259112202015517259     3101201600000000000078000000024A211120163000000000000000000000000000000000000000000000000000000000000000000000000000002015517259               3001120090000000000 
1040001300009Q 011000029453267368AFRNIO MELO JUNIOR                      RUA DOURADO, 424 LOT. STIO TUNGA - ALPHAENGENHO LUCIANO61760905EUSBIO         CE0009791484000109ORDEM DOS ADVOGADOS DO BRASIL SECO PE   000                            
1040001300010P 010004500000000000000000014000002015517260112202015517260     3101201600000000000078000000024A211120163000000000000000000000000000000000000000000000000000000000000000000000000000002015517260               3001120090000000000 
1040001300010Q 011000009336108824AGOSTINHO ZECHIN PEREIRA                R. DR. ANTONIO DUARTE DA CONCEIO, 525 CAJD MADALENA    13091905CAMPINAS       SP0009791484000109ORDEM DOS ADVOGADOS DO BRASIL SECO PE   000                            
10400015         0000240000110000000000000780000000000000000000000000      00000000000000000                                                                                                                                                    
10499999         000001000026                                                                                                                                                                                                                   
