00100020         240841033000189002949432001417001  006971000000015198X0BISA BANCO DE IDEIAS          001BANCODOBRASIL                        12303201718202500000208400000CDC240000000000                                                      
00100011R01  043 2040841033000189002949432001417001  006971000000015198X0BISA BANCO DE IDEIAS                                                                                          000000022303201723032017                                 
0010001300001P 01006971000000015198X029494320170382544   71222170382544      2403201700000000000015000000 24A23032017300000000000000000000000000000000000000000000000000000000000000000000000000000170382544                3001120090000000000 
0010001300001Q 171009791484000109A DEFENSORIA PBLICA DO ESTADO DE PERNAMBRUA DA OAB                              SANTO ANTONIO  60000000RECANTO DAS EMAPE2040841033000189BISA BANCO DE IDEIAS                    000                            
00100015         0000041                                                                                                                                                                                                                        
00199999         000001000006                                                                                                                                                                                                                   
