001|0001|0|         |2|40841033000189|0021329500014|17|001|  |00697|1|000000015198|X|0|BISAWEB TECNOLOGIA DA INFORMAO|001BANCODOBRASIL              |          |1|23032017|161058|000001|084|00000|CDC240000000000     |                    |                             
00100011R01  043 2040841033000189002132950001417001  006971000000015198X0BISAWEB TECNOLOGIA DA INFORMAO                                                                                000000012303201723032017                                 
0010001300001P 01006971000000015198X021329500170382544   7122170382544      2403201700000000000015000000 24A23032017300000000000000000000000000000000000000000000000000000000000000000000000000000170382544                3001120090000000000 
0010001300001Q 171009791484000109A DEFENSORIA PBLICA DO ESTADO DE PERNAMBRUA DA OAB                              SANTO ANTONIO  60000000RECANTO DAS EMAPE2040841033000189BISAWEB TECNOLOGIA DA INFORMAO LTDA     000                            
00100015         0000041                                                                                                                                                                                                                        
00199999         000001000006                                                                                                                                                                                                                   
