10400000         2039977620001000000000000000000000001051026319100000000SINDICATO DOS TRABALHADORES NACAIXA ECONOMICA FEDERAL                 12607201710442700000005000000                    REMESSA-PRODUCAO                                 
10400011R0100030 20039977620001002631910000000000000001051026319100000000SINDICATO DOS TRABALHADORES NA                                                                                000000002607201700000000                                 
1040001300001P 01010510263191000000000001400000000000015911220159            2607201700000000000000000000024A26072017227072017000000000000000126072017000000000000000000000000000000000000000000000159                      3001120090000000000 
1040001300001Q 012088934393000151A & S INDUSTRIA DE BISCOITOS LTDA - ME  OTR ANEL VIARIO BR 030KM 01, S/N        NI             46100000Brumado        BA2003997762000100SINDICATO DOS TRABALHADORES NAS INDUSTRI                               
1040001300001R 01000000000000000000000000000000000000000000000000227072017000000000000000                                                                                                                                                       
10400015         000005000001000000000000000000000000000000000000000000000000000000000000000                                                                                                                                                    
10499999         000001000007                                                                                                                                                                                                                   
