10400000         2039977620001000000000000000000000001051032165400000000SINDICATO DOS TRABALHADORES NACAIXA ECONOMICA FEDERAL                 11008201710144400000005000000                    REMESSA-PRODUCAO                                 
10400011R0100030 20039977620001003216540000000000000001051032165400000000SINDICATO DOS TRABALHADORES NA                                                                                000000001008201700000000                                 
1040001300001P 01010510321654000000000001400000000000017011220170            1008201700000000000000000000024A10082017211082017000000000000000110082017000000000000000000000000000000000000000000000170                      3001120090000000000 
1040001300001Q 012088934393000151A & S INDUSTRIA DE BISCOITOS LTDA - ME  OTR ANEL VIARIO BR 030KM 01, S/N        NI             46100000Brumado        BA2003997762000100SINDICATO DOS TRABALHADORES NAS INDUSTRI                               
1040001300001R 01000000000000000000000000000000000000000000000000211082017000000000000000                                                                                                                                                       
10400015         000005000001000000000000000000000000000000000000000000000000000000000000000                                                                                                                                                    
10499999         000001000007                                                                                                                                                                                                                   
